The Imaginary Healthy Patient - 3 Sunlight Data
…
Rows: 62 Columns: 5
── Column specification ────────────────────────────────────────────────────────
Delimiter: ";"
chr (2): ID, Nom
dbl (3): Latitude, Longitude, Altitude

ℹ Use `spec()` to retrieve the full column specification for this data.
ℹ Specify the column types or set `show_col_types = FALSE` to quiet this message.

stations

# A tibble: 62 × 5
   ID    Nom               Latitude Longitude Altitude
   <chr> <chr>                <dbl>     <dbl>    <dbl>
 1 07005 ABBEVILLE             50.1     1.83        69
 2 07015 LILLE-LESQUIN         50.6     3.10        47
 3 07020 PTE DE LA HAGUE       49.7    -1.94         6
 4 07027 CAEN-CARPIQUET        49.2    -0.456       67
 5 07037 ROUEN-BOOS            49.4     1.18       151
 6 07072 REIMS-PRUNAY          49.2     4.16        95
 7 07110 BREST-GUIPAVAS        48.4    -4.41        94
 8 07117 PLOUMANAC'H           48.8    -3.47        55
 9 07130 RENNES-ST JACQUES     48.1    -1.73        36
10 07139 ALENCON               48.4     0.110      143
# ℹ 52 more rows
…
`summarise()` has grouped output by 'NUM_POSTE'. You can override using the
`.groups` argument.

And let us add the stations informations:

df_ensoleillement_month <- 
  df_ensoleillement_month |> 
  left_join(stations, by = c("NUM_POSTE" = "ID"))
df_ensoleillement_month

# A tibble: 684 × 7
# Groups:   NUM_POSTE [57]
   NUM_POSTE month  INST Nom       Latitude Longitude Altitude
   <chr>     <dbl> <dbl> <chr>        <dbl>     <dbl>    <dbl>
 1 07005         1  68.4 ABBEVILLE     50.1      1.83       69
 2 07005         2  78.2 ABBEVILLE     50.1      1.83       69
 3 07005         3 128.  ABBEVILLE     50.1      1.83       69
 4 07005         4 181.  ABBEVILLE     50.1      1.83       69
 5 07005         5 205   ABBEVILLE     50.1      1.83       69
 6 07005         6 207   ABBEVILLE     50.1      1.83       69
 7 07005         7 220.  ABBEVILLE     50.1      1.83       69
 8 07005         8 208.  ABBEVILLE     50.1      1.83       69
 9 07005         9 159.  ABBEVILLE     50.1      1.83       69
10 07005        10 114   ABBEVILLE     50.1      1.83       69
# ℹ 674 more rows
…
`summarise()` has grouped output by 'long'. You can override using the
`.groups` argument.

ensol_krigeage_sf

Simple feature collection with 600 features and 3 fields
Geometry type: POLYGON
Dimension:     XY
Bounding box:  xmin: -5.138996 ymin: 41.36216 xmax: 9.861004 ymax: 51.36216
Geodetic CRS:  WGS 84
# A tibble: 600 × 4
    long   lat ensol                                                    geometry
 * <dbl> <dbl> <dbl>                                               <POLYGON [°]>
 1 -5.14  41.4 1986. ((-5.138996 41.36216, -4.638996 41.36216, -4.638996 41.862…
 2 -5.14  41.9 1989. ((-5.138996 41.86216, -4.638996 41.86216, -4.638996 42.362…
 3 -5.14  42.4 1995. ((-5.138996 42.36216, -4.638996 42.36216, -4.638996 42.862…
 4 -5.14  42.9 2001. ((-5.138996 42.86216, -4.638996 42.86216, -4.638996 43.362…
 5 -5.14  43.4 2006. ((-5.138996 43.36216, -4.638996 43.36216, -4.638996 43.862…
 6 -5.14  43.9 2007. ((-5.138996 43.86216, -4.638996 43.86216, -4.638996 44.362…
 7 -5.14  44.4 2001. ((-5.138996 44.36216, -4.638996 44.36216, -4.638996 44.862…
 8 -5.14  44.9 1987. ((-5.138996 44.86216, -4.638996 44.86216, -4.638996 45.362…
 9 -5.14  45.4 1963. ((-5.138996 45.36216, -4.638996 45.36216, -4.638996 45.862…
10 -5.14  45.9 1927. ((-5.138996 45.86216, -4.638996 45.86216, -4.638996 46.362…
# ℹ 590 more rows

And then aggregate the values at the French region level:

ensol_regions <- 
  ensol_krigeage_sf |>
  sf::st_join(map_departements, join = st_intersects, left = FALSE) |> 
  sf::st_set_geometry(NULL) |>
  select(CODE_DEPT, ensol) |> 
  group_by(CODE_DEPT) |> 
  summarise(ensol = mean(ensol))
ensol_regions

# A tibble: 96 × 2
   CODE_DEPT ensol
   <chr>     <dbl>
 1 01        1967.
 2 02        1779.
 3 03        1898.
 4 04        2688.
 5 05        2542.
 6 06        2753.
 7 07        2299.
 8 08        1786.
 9 09        2094.
10 10        1840.
# ℹ 86 more rows
…
df_ensoleillement_2011 <- 
  df_ensoleillement |> 
  mutate(month = lubridate::month(DAT), year = lubridate::year(DAT)) |> 
  filter(year == 2011) |> 
  filter(!is.na(INST)) |> 
  group_by(NUM_POSTE) |> 
  mutate(n = n()) |> 
  filter(n == 12) |> 
  group_by(NUM_POSTE) |> 
  summarise(cumul_ensol = sum(INST, na.rm=TRUE)) |> 
  left_join(stations, by = c("NUM_POSTE" = "ID"))
df_ensoleillement_2011

# A tibble: 41 × 6
   NUM_POSTE cumul_ensol Nom                 Latitude Longitude Altitude
   <chr>           <dbl> <chr>                  <dbl>     <dbl>    <dbl>
 1 07005            1591 ABBEVILLE               50.1     1.83        69
 2 07015            1705 LILLE-LESQUIN           50.6     3.10        47
 3 07027            1905 CAEN-CARPIQUET          49.2    -0.456       67
 4 07037            1611 ROUEN-BOOS              49.4     1.18       151
 5 07110            1610 BREST-GUIPAVAS          48.4    -4.41        94
 6 07130            1935 RENNES-ST JACQUES       48.1    -1.73        36
 7 07139            1821 ALENCON                 48.4     0.110      143
 8 07149            1882 ORLY                    48.7     2.38        89
 9 07168            2014 TROYES-BARBEREY         48.3     4.02       112
10 07190            1898 STRASBOURG-ENTZHEIM     48.5     7.64       150
# ℹ 31 more rows
…
Let us turn the results into a tibble:

ensol_krigeage_df_2011 <- 
  ensol_krigeage |> 
  tbl_df() |> 
  rename(long = coords.x1, lat = coords.x2,
         ensol = var1.pred, ensol_var = var1.var)

Warning: `tbl_df()` was deprecated in dplyr 1.0.0.
ℹ Please use `tibble::as_tibble()` instead.

ensol_krigeage_df_2011

# A tibble: 600 × 4
     long   lat ensol ensol_var
    <dbl> <dbl> <dbl>     <dbl>
 1 -5.14   41.4 1721.   141302.
 2 -4.64   41.4 1726.   123759.
 3 -4.14   41.4 1736.   107596.
 4 -3.64   41.4 1752.    92994.
 5 -3.14   41.4 1774.    80068.
 6 -2.64   41.4 1803.    68871.
 7 -2.14   41.4 1840.    59390.
 8 -1.64   41.4 1885.    51553.
 9 -1.14   41.4 1938.    45242.
10 -0.639  41.4 1999.    40306.
# ℹ 590 more rows
…
Adding missing grouping variables: `NUM_POSTE`

coords_stations

Simple feature collection with 40 features and 1 field
Geometry type: POINT
Dimension:     XY
Bounding box:  xmin: -4.412 ymin: 41.918 xmax: 9.485167 ymax: 50.57
Geodetic CRS:  WGS 84
# A tibble: 40 × 2
# Groups:   NUM_POSTE [40]
   NUM_POSTE             geometry
 * <chr>              <POINT [°]>
 1 07005           (1.834 50.136)
 2 07015           (3.0975 50.57)
 3 07020     (-1.939833 49.72517)
 4 07027        (-0.456167 49.18)
 5 07037        (1.181667 49.383)
 6 07110        (-4.412 48.44417)
 7 07117     (-3.473167 48.82583)
 8 07130        (-1.734 48.06883)
 9 07139       (0.110167 48.4455)
10 07149      (2.384333 48.71683)
# ℹ 30 more rows
…
old-style crs object detected; please recreate object with a recent sf::st_crs()
old-style crs object detected; please recreate object with a recent sf::st_crs()
old-style crs object detected; please recreate object with a recent sf::st_crs()
old-style crs object detected; please recreate object with a recent sf::st_crs()

ensol_regions

# A tibble: 22 × 2
   code_insee ensol
   <chr>      <dbl>
 1 11         1806.
 2 21         1809.
 3 22         1745.
 4 23         1708.
 5 24         1844.
 6 25         1734.
 7 26         1851.
 8 31         1688.
 9 41         1787.
10 42         1777.
# ℹ 12 more rows
…
df_ensoleillement_2011 <- 
  df_ensoleillement |> 
  mutate(month = lubridate::month(DAT), year = lubridate::year(DAT)) |> 
  filter(year == 2011) |> 
  filter(!is.na(INST)) |> 
  group_by(NUM_POSTE) |> 
  mutate(n = n()) |> 
  filter(n == 12) |> 
  group_by(NUM_POSTE) |> 
  summarise(cumul_ensol = sum(INST, na.rm=TRUE)) |> 
  left_join(stations, by = c("NUM_POSTE" = "ID"))
df_ensoleillement_2011

# A tibble: 41 × 6
   NUM_POSTE cumul_ensol Nom                 Latitude Longitude Altitude
   <chr>           <dbl> <chr>                  <dbl>     <dbl>    <dbl>
 1 07005            1591 ABBEVILLE               50.1     1.83        69
 2 07015            1705 LILLE-LESQUIN           50.6     3.10        47
 3 07027            1905 CAEN-CARPIQUET          49.2    -0.456       67
 4 07037            1611 ROUEN-BOOS              49.4     1.18       151
 5 07110            1610 BREST-GUIPAVAS          48.4    -4.41        94
 6 07130            1935 RENNES-ST JACQUES       48.1    -1.73        36
 7 07139            1821 ALENCON                 48.4     0.110      143
 8 07149            1882 ORLY                    48.7     2.38        89
 9 07168            2014 TROYES-BARBEREY         48.3     4.02       112
10 07190            1898 STRASBOURG-ENTZHEIM     48.5     7.64       150
# ℹ 31 more rows
…
ensol_krigeage_df_2011 <- 
  ensol_krigeage |> 
  tbl_df() |> 
  rename(
    long = coords.x1, lat = coords.x2,
    ensol = var1.pred, ensol_var = var1.var
  )

Warning: `tbl_df()` was deprecated in dplyr 1.0.0.
ℹ Please use `tibble::as_tibble()` instead.

ensol_krigeage_df_2011

# A tibble: 600 × 4
     long   lat ensol ensol_var
    <dbl> <dbl> <dbl>     <dbl>
 1 -5.14   41.4 1721.   141302.
 2 -4.64   41.4 1726.   123759.
 3 -4.14   41.4 1736.   107596.
 4 -3.64   41.4 1752.    92994.
 5 -3.14   41.4 1774.    80068.
 6 -2.64   41.4 1803.    68871.
 7 -2.14   41.4 1840.    59390.
 8 -1.64   41.4 1885.    51553.
 9 -1.14   41.4 1938.    45242.
10 -0.639  41.4 1999.    40306.
# ℹ 590 more rows
…
old-style crs object detected; please recreate object with a recent sf::st_crs()
old-style crs object detected; please recreate object with a recent sf::st_crs()
old-style crs object detected; please recreate object with a recent sf::st_crs()
old-style crs object detected; please recreate object with a recent sf::st_crs()

ensol_regions_2011

# A tibble: 22 × 2
   code_insee ensol
   <chr>      <dbl>
 1 11         1876.
 2 21         1880.
 3 22         1771.
 4 23         1790.
 5 24         2004.
 6 25         1819.
 7 26         2102.
 8 31         1681.
 9 41         1915.
10 42         1991.
# ℹ 12 more rows
…
