1 Load Data – The Imaginary Healthy Patient
…
Some people in the table mutuelle (mutual insurance) have two rows (we create a group index here to avoid displaying the real ID):

mutuelle$group_ID <- group_by(mutuelle, ben_n4, nind) |> group_indices()
mutuelle |> 
  select(-ben_n4, -nind) |> 
  group_by(group_ID) |> 
  mutate(count = n()) |> 
  filter(count > 1) |> 
  arrange(desc(count), group_ID)

# A tibble: 1,647 × 10
# Groups:   group_ID [809]
    ...1 nmut  typcc  idcc  assu i_entrepr entrepr nindassu_gv group_ID count
   <dbl> <chr> <dbl> <dbl> <dbl>     <dbl>   <dbl> <chr>          <int> <int>
 1   830 01        0 99999     1         1       1 01               813     4
 2   831 02        1 55924     2         1       1 02               813     4
 3   835 03        1 60038     1         1       2 01               813     4
 4   837 04        1 60038     1         1       2 01               813     4
 5  7975 01        1 10002     1         1       1 02              7673     4
 6  7977 02        2 70506     2         1       1 01              7673     4
 7  7980 03        2 70109     2         1       1 01              7673     4
 8  7983 04        1 60038     2         1       2 01              7673     4
 9   626 01        1 31003     2         1       1 01               616     3
10   627 02        4 90001     1         1       1 02               616     3
# ℹ 1,637 more rows
…
