The Imaginary Healthy Patient - 15 Data Cleaning
…
df_tmp |> 
  filter(QST_ct_depech == "Not surveyed") |> 
  select_at(vars(matches("^QST_c")))

# A tibble: 5,638 × 9
   QST_ct_depech QST_ct_liberte QST_ct_apprend QST_ct_aidecol QST_ct_travnuit
   <fct>         <fct>          <fct>          <fct>          <fct>          
 1 Not surveyed  Not surveyed   Not surveyed   Not surveyed   Not surveyed   
 2 Not surveyed  Not surveyed   Not surveyed   Not surveyed   Not surveyed   
 3 Not surveyed  Not surveyed   Not surveyed   Not surveyed   Not surveyed   
 4 Not surveyed  Not surveyed   Not surveyed   Not surveyed   Not surveyed   
 5 Not surveyed  Not surveyed   Not surveyed   Not surveyed   Not surveyed   
 6 Not surveyed  Not surveyed   Not surveyed   Not surveyed   Not surveyed   
 7 Not surveyed  Not surveyed   Not surveyed   Not surveyed   Not surveyed   
 8 Not surveyed  Not surveyed   Not surveyed   Not surveyed   Not surveyed   
 9 Not surveyed  Not surveyed   Not surveyed   Not surveyed   Not surveyed   
10 Not surveyed  Not surveyed   Not surveyed   Not surveyed   Not surveyed   
# ℹ 5,628 more rows
# ℹ 4 more variables: QST_ct_repet <fct>, QST_ct_lourd <fct>,
#   QST_ct_posture <fct>, QST_ct_produit <fct>
…
