20 SHAP Results – The Imaginary Healthy Patient
…
load("../data/out/variable_names.rda")

We build a table with variable names.

variable_names_categ <- 
  enframe(corresp_factors) |> 
  left_join(variable_names, by = c("name" = "variable")) |> 
  unnest(value) |> 
  mutate(
    variable = str_c(name, value),
    label_categ = str_c(label, " = ", value)) |> 
  select(variable, label_categ, variable_raw = name, variable_label_val = value)
variable_names_categ

# A tibble: 189 × 4
   variable                       label_categ    variable_raw variable_label_val
   <chr>                          <chr>          <chr>        <chr>             
 1 PERSONNE_pb_asthmNo            Asthma = No    PERSONNE_pb… No                
 2 PERSONNE_pb_asthmYes           Asthma = Yes   PERSONNE_pb… Yes               
 3 PERSONNE_pb_asthmNo answer     Asthma = No a… PERSONNE_pb… No answer         
 4 PERSONNE_pb_bronchitNo         Bronchitis = … PERSONNE_pb… No                
 5 PERSONNE_pb_bronchitYes        Bronchitis = … PERSONNE_pb… Yes               
 6 PERSONNE_pb_bronchitNo answer  Bronchitis = … PERSONNE_pb… No answer         
 7 PERSONNE_pb_infarctusNo        Heart Attack … PERSONNE_pb… No                
 8 PERSONNE_pb_infarctusYes       Heart Attack … PERSONNE_pb… Yes               
 9 PERSONNE_pb_infarctusNo answer Heart Attack … PERSONNE_pb… No answer         
10 PERSONNE_pb_coronairNo         Artery Diseas… PERSONNE_pb… No                
# ℹ 179 more rows
…
20.5 Clustering

It may be possible to group individuals in the dataset depending the profile of the shap values. Let us perform a hierarchical clustering to group the individuals depending on their Shapley values. We will only keep a few variables to represent each individual, and will focus only on people classified as imaginary healthy patients. First, let us compute the aberage Shapley value for each variable, among the predicted imaginary healthy patients.

20.5.1 Note

We only focus on the SHAP values computed based on the predictions made with XGBoost in this part.

Recall we put in a tibble (order_variables_shap_xgb) the average absolute SHAP values (column value) and the average SHAP values (column mean):

order_variables_shap_xgb

# A tibble: 188 × 3
   name                     value     mean
   <chr>                    <dbl>    <dbl>
 1 PERSONNE_age            0.152  -0.0146 
 2 PERSONNE_sexeMale       0.129  -0.00171
 3 MENAGE_revucinsee       0.119  -0.00860
 4 OPINION1_renonc_dentNo  0.102  -0.0146 
 5 PERSONNE_pb_cervicalYes 0.0863 -0.00842
 6 QES_tpsassoNever        0.0810 -0.00288
 7 SOINS_pf_frpha          0.0792 -0.00322
 8 PERSONNE_pb_lombalgiYes 0.0751 -0.00566
 9 QST_ct_depechSometimes  0.0744 -0.00724
10 PERSONNE_pb_allergiYes  0.0697 -0.00710
# ℹ 178 more rows
…
