14 SHAP Results – The Imaginary Healthy Patient
…
load("../data/out/variable_names.rda")

We build a table with variable names.

variable_names_categ <- 
  enframe(corresp_factors) |> 
  left_join(variable_names, by = c("name" = "variable")) |> 
  unnest(value) |> 
  mutate(
    variable = str_c(name, value),
    label_categ = str_c(label, " = ", value)) |> 
  select(variable, label_categ, variable_raw = name, variable_label_val = value)
variable_names_categ

# A tibble: 176 × 4
   variable                 label_categ          variable_raw variable_label_val
   <chr>                    <chr>                <chr>        <chr>             
 1 PERSONNE_pb_asthmNo      Asthma = No          PERSONNE_pb… No                
 2 PERSONNE_pb_asthmYes     Asthma = Yes         PERSONNE_pb… Yes               
 3 PERSONNE_pb_bronchitNo   Bronchitis = No      PERSONNE_pb… No                
 4 PERSONNE_pb_bronchitYes  Bronchitis = Yes     PERSONNE_pb… Yes               
 5 PERSONNE_pb_infarctusNo  Heart Attack = No    PERSONNE_pb… No                
 6 PERSONNE_pb_infarctusYes Heart Attack = Yes   PERSONNE_pb… Yes               
 7 PERSONNE_pb_coronairNo   Artery Disease = No  PERSONNE_pb… No                
 8 PERSONNE_pb_coronairYes  Artery Disease = Yes PERSONNE_pb… Yes               
 9 PERSONNE_pb_hypertensNo  Hypertension = No    PERSONNE_pb… No                
10 PERSONNE_pb_hypertensYes Hypertension = Yes   PERSONNE_pb… Yes               
# ℹ 166 more rows
…
14.5 Clustering

It may be possible to group individuals in the dataset depending the profile of the shap values. Let us perform a hierarchical clustering to group the individuals depending on their Shapley values. We will only keep a few variables to represent each individual, and will focus only on people classified as imaginary healthy patients. First, let us compute the aberage Shapley value for each variable, among the predicted imaginary healthy patients.

14.5.1 Note

We only focus on the SHAP values computed based on the predictions made with XGBoost in this part.

Recall we put in a tibble (order_variables_shap_xgb) the average absolute SHAP values (column value) and the average SHAP values (column mean):

order_variables_shap_xgb

# A tibble: 175 × 3
   name                     value     mean
   <chr>                    <dbl>    <dbl>
 1 MENAGE_revucinsee       0.202  -0.0269 
 2 SOINS_remomn            0.147  -0.0222 
 3 SOINS_rempha            0.140  -0.0232 
 4 QST_ct_liberteNever     0.0981 -0.0125 
 5 PERSONNE_pb_lombalgiYes 0.0900 -0.00804
 6 PERSONNE_sexeMale       0.0831 -0.00492
 7 PERSONNE_age            0.0810 -0.00335
 8 QST_ct_depechSometimes  0.0777 -0.0107 
 9 OPINION1_renonc_longNo  0.0578 -0.00706
10 SOINS_seac_omn          0.0506 -0.00855
# ℹ 165 more rows
…
