The Imaginary Healthy Patient - 8 Results
…
load("../data/out/variable_names.rda")

We build a table with variable names.

variable_names_categ <- 
  enframe(corresp_factors) |> 
  left_join(variable_names, by = c("name" = "variable")) |> 
  unnest(value) |> 
  mutate(
    variable = str_c(name, value),
    label_categ = str_c(label, " = ", value)) |> 
  select(variable, label_categ, variable_raw = name, variable_label_val = value)
variable_names_categ

# A tibble: 150 × 4
   variable                        label_categ   variable_raw variable_label_val
   <chr>                           <chr>         <chr>        <chr>             
 1 PERSONNE_sexeFemale             Gender = Fem… PERSONNE_se… Female            
 2 PERSONNE_sexeMale               Gender = Male PERSONNE_se… Male              
 3 PERSONNE_coupleNo               Couple = No   PERSONNE_co… No                
 4 PERSONNE_coupleNo answer        Couple = No … PERSONNE_co… No answer         
 5 PERSONNE_coupleYes              Couple = Yes  PERSONNE_co… Yes               
 6 PERSONNE_statutPublic employee  Professional… PERSONNE_st… Public employee   
 7 PERSONNE_statutPrivate employee Professional… PERSONNE_st… Private employee  
 8 PERSONNE_statutOther            Professional… PERSONNE_st… Other             
 9 PERSONNE_statutNo answer        Professional… PERSONNE_st… No answer         
10 PERSONNE_ssYes (own)            Social Secur… PERSONNE_ss  Yes (own)         
# ℹ 140 more rows
…
8.5 Clustering

It may be possible to group individuals in the dataset depending the profile of the shap values. Let us perform a hierarchical clustering to group the individuals depending on their Shapley values. We will only keep a few variables to represent each individual, and will focus only on people classified as imaginary healthy patients. First, let us compute the aberage Shapley value for each variable, among the predicted imaginary healthy patients.

8.5.1 Note

We only focus on the SHAP values computed based on the predictions made with XGBoost in this part.

Recall we put in a tibble (order_variables_shap_xgb) the average absolute SHAP values (column value) and the average SHAP values (column mean):

order_variables_shap_xgb

# A tibble: 162 × 3
   name                    value     mean
   <chr>                   <dbl>    <dbl>
 1 MENAGE_revucinsee      0.164  -0.0160 
 2 SOINS_remomn           0.123  -0.00802
 3 PERSONNE_age           0.106  -0.00889
 4 SOINS_rempha           0.0902 -0.00783
 5 PERSONNE_sexeMale      0.0884 -0.00303
 6 QES_tpsassoNever       0.0721 -0.00290
 7 QST_ct_depechSometimes 0.0683 -0.00726
 8 QST_ct_liberteNever    0.0590 -0.00400
 9 SOINS_seac_omn         0.0571 -0.00542
10 SOINS_pf_frpha         0.0537 -0.00101
# ℹ 152 more rows
…
